\select@language {french}
\addvspace {10\p@ }
\addvspace {10\p@ }
\addvspace {10\p@ }
\contentsline {figure}{\numberline {3.1}{\ignorespaces Diagramme de cas d'utilisation du syst\IeC {\`e}me\relax }}{10}
\contentsline {figure}{\numberline {3.2}{\ignorespaces Diagramme de s\IeC {\'e}quence\relax }}{11}
\contentsline {figure}{\numberline {3.3}{\ignorespaces Diagramme de activit\IeC {\'e}\relax }}{12}
\addvspace {10\p@ }
\contentsline {figure}{\numberline {4.1}{\ignorespaces OpenERP : odoo\relax }}{14}
\contentsline {figure}{\numberline {4.2}{\ignorespaces Machine virtuelle vs Docker\relax }}{15}
\contentsline {figure}{\numberline {4.3}{\ignorespaces Formulaire de cr\IeC {\'e}ation d'une base de donn\IeC {\'e}e\relax }}{16}
\contentsline {figure}{\numberline {4.4}{\ignorespaces La page index de la plateforme \relax }}{16}
\contentsline {figure}{\numberline {4.5}{\ignorespaces La deuxiemme page d'index\relax }}{17}
\contentsline {figure}{\numberline {4.6}{\ignorespaces La page principale de la plateforme\relax }}{17}
\contentsline {figure}{\numberline {4.7}{\ignorespaces Le formulaire d'inscription d'\IeC {\'e}tudiant\relax }}{18}
\addvspace {10\p@ }
