\relax 
\catcode `:\active 
\catcode `;\active 
\catcode `!\active 
\catcode `?\active 
\providecommand \oddpage@label [2]{}
\select@language{french}
\@writefile{toc}{\select@language{french}}
\@writefile{lof}{\select@language{french}}
\@writefile{lot}{\select@language{french}}
\@writefile{toc}{\contentsline {paragraph}{\textbf  {\normalfont  Dans le cadre de l\IeC {\textquoteright }obtention de notre dipl\IeC {\^o}me de Licence en informatique \IeC {\`a} l\IeC {\textquoteright }Universit\IeC {\'e} Ab-delhamid Ibn Badis , Facult\IeC {\'e} des sciences exactes et d\IeC {\textquoteright }informatique et notre grand devoir est de r\IeC {\'e}aliser un projet de fin d\IeC {\textquoteright }\IeC {\'e}tudes afin de cl\IeC {\^o}turer notre formation du premier cycle universitaire.\\ C\IeC {\textquoteright }est ainsi que nous avons eu l\IeC {\textquoteright }occasion d\IeC {\textquoteright }approfondir nos connaissances th\IeC {\'e}oriques par la concep-tion et la r\IeC {\'e}alisation d\IeC {\textquoteright }une application de gestion de notes qui g\IeC {\`e}re les \IeC {\'e}tudiants, les modules et les r\IeC {\'e}sultats de fin d\IeC {\textquoteright }ann\IeC {\'e}e. }}{1}}
\@writefile{toc}{\contentsline {chapter}{\numberline {1}Introduction Generale}{2}}
\@writefile{lof}{\addvspace {10\p@ }}
\@writefile{lot}{\addvspace {10\p@ }}
\@writefile{toc}{\contentsline {paragraph}{\textbf  {\normalfont  L\IeC {\textquoteright }informatique repr\IeC {\'e}sente la r\IeC {\'e}volution la plus importante et la plus innovante qui a marqu\IeC {\'e} la vie de l\IeC {\textquoteright }humanit\IeC {\'e} ces derni\IeC {\`e}res d\IeC {\'e}cennies. En effet, ce domaine vient nous apporter de multiples conforts \IeC {\`a} notre mode de vie. Aucun domaine n\IeC {\textquoteright }est rest\IeC {\'e} \IeC {\'e}tranger \IeC {\`a} cette strat\IeC {\'e}gie qui offre tant de services aussi bien pour l\IeC {\textquoteright }enseignement ou l\IeC {\textquoteright }administration que pour le personnel. Dans le cadre d\IeC {\textquoteright }une gestion d\IeC {\textquoteright }information dans un \IeC {\'e}tablissement de formation, typiquement une universit\IeC {\'e}, le personnel est emmen\IeC {\'e} \IeC {\`a} g\IeC {\'e}rer une grande masse d\IeC {\textquoteright }information tout au long de l\IeC {\textquoteright }ann\IeC {\'e}e universitaire commen\IeC {\c c}ant par l\IeC {\textquoteright }inscription jusqu\IeC {\textquoteright }\IeC {\`a} la d\IeC {\'e}lib\IeC {\'e}ration finale et l\IeC {\textquoteright }affichage des r\IeC {\'e}sultats, et ce, dans les diff\IeC {\'e}rents services de l\IeC {\textquoteright }\IeC {\'e}tablissement. Les d\IeC {\'e}partements des diff\IeC {\'e}rentes facult\IeC {\'e}s sont aussi concern\IeC {\'e}s par cette gestion de masses d\IeC {\textquoteright }informations. En effet, les r\IeC {\'e}sultats des \IeC {\'e}tudiants sont g\IeC {\'e}r\IeC {\'e}s g\IeC {\'e}n\IeC {\'e}ralement au sein des d\IeC {\'e}partements. Avec l\IeC {\textquoteright }arriv\IeC {\'e}e du syst\IeC {\`e}me LMD une n\IeC {\'e}cessit\IeC {\'e} de synchronisation entre les informations de plusieurs ann\IeC {\'e}es universitaires s\IeC {\textquoteright }impose typiquement pour la gestion du cursus d\IeC {\textquoteright }un \IeC {\'e}tudiant inscrit dans un syst\IeC {\`e}me LMD. En effet, il est indispensable de garder et g\IeC {\'e}rer les r\IeC {\'e}sultats d\IeC {\textquoteright }un \IeC {\'e}tudiant LMD durant tout son cursus et \IeC {\`a} synchroniser entre les informations des diff\IeC {\'e}rentes ann\IeC {\'e}es . Cette gestion s\IeC {\textquoteright }av\IeC {\`e}re tr\IeC {\`e}s on\IeC {\'e}reuse si elle est faite manuellement, surtout dans les d\IeC {\'e}partements o\IeC {\`u} l\IeC {\textquoteright }effectif des \IeC {\'e}tudiants est important. L\IeC {\textquoteright }automatisation de ces t\IeC {\^a}ches devient une n\IeC {\'e}cessit\IeC {\'e} importante. La saisie des informations manuellement sur des supports en papiers engendre beaucoup de probl\IeC {\`e}mes tels que la perte de temps, les erreurs fatales de calcul et de saisie \IeC {\textellipsis }\IeC {\textellipsis }.. des informations manuellement sur des supports en papiers engendre beaucoup de probl\IeC {\`e}mes tels que la perte de temps, les erreurs fatales de calcul et de saisie.}}{2}}
\@writefile{toc}{\contentsline {paragraph}{\textbf  {\normalfont  Parce que des milliers d\IeC {\textquoteright } \IeC {\'e}tudiants sont inscrits dans la plupart des universit\IeC {\'e}s ,il s\IeC {\textquoteright }av\IeC {\`e}re difficile de g\IeC {\'e}rer tout leur cursus depuis leurs premi\IeC {\`e}res inscriptions jusqu\IeC {\textquoteright }\IeC {\`a} l\IeC {\textquoteright }obtention de leurs dipl\IeC {\^o}mes. Par cons\IeC {\'e}quent, la meilleure solution pour contourner ces probl\IeC {\`e}mes est de simplifier le stockage et la saisie , de d\IeC {\'e}velopper un syst\IeC {\`e}me de gestion des cursus de chaque \IeC {\'e}tudiant. Il est \IeC {\`a} noter que du point de vue d\IeC {\'e}veloppement, il est facile de d\IeC {\'e}velopper une application permettant de g\IeC {\'e}rer les notes des \IeC {\'e}tudiants dans une seule ann\IeC {\'e}e. Or, le grand probl\IeC {\`e}me est le d\IeC {\'e}fi de la gestion de tout le cursus. En effet, comme on le sait pour le syst\IeC {\`e}me LMD, un \IeC {\'e}tudiant peut passer \IeC {\`a} une ann\IeC {\'e}e sup\IeC {\'e}rieure sans avoir valid\IeC {\'e} une ou plusieurs mati\IeC {\`e}res avec certaines conditions. Ce passage lui donne la possibilit\IeC {\'e} d\IeC {\textquoteright }\IeC {\'e}tudier ces mati\IeC {\`e}res en m\IeC {\^e}me temps que celles de la nouvelle ann\IeC {\'e}e. Il est donc important de traiter les anciens r\IeC {\'e}sultats ainsi que les nouveaux. D\IeC {\'e}velopper un syst\IeC {\`e}me qui satisfait tous les crit\IeC {\`e}res est loin d\IeC {\textquoteright }\IeC {\^e}tre une chose ais\IeC {\'e}e. Il est \IeC {\`a} noter que plusieurs applica-tions de gestion de notes ont \IeC {\'e}t\IeC {\'e} d\IeC {\'e}velopp\IeC {\'e}es pour traiter une seule ann\IeC {\'e}e \IeC {\`a} la fois. Or, trop peu d\IeC {\textquoteright }applications permettant de g\IeC {\'e}rer le cursus entier d\IeC {\textquoteright }un \IeC {\'e}tudiant LMD ont \IeC {\'e}t\IeC {\'e} d\IeC {\'e}velopp\IeC {\'e}es. Nous notons comme exemple de cette derni\IeC {\`e}re cat\IeC {\'e}gorie, l\IeC {\textquoteright }application SEES qui a \IeC {\'e}t\IeC {\'e} d\IeC {\'e}velopp\IeC {\'e}e et qui a \IeC {\'e}t\IeC {\'e} valid\IeC {\'e}e par le minist\IeC {\`e}re de l\IeC {\textquoteright }enseignement sup\IeC {\'e}rieur et de la recherche scientifique alg\IeC {\'e}rien. En effet, l\IeC {\textquoteright }application SEES est utilis\IeC {\'e}e depuis plusieurs ann\IeC {\'e}es dans diff\IeC {\'e}rentes universit\IeC {\'e}s alg\IeC {\'e}riennes pour la gestion des notes ainsi que d\IeC {\textquoteright }autres services. Cependant, l\IeC {\textquoteright }exp\IeC {\'e}rience de l\IeC {\textquoteright }utilisation et notre analyse de SEES a montr\IeC {\'e} plusieurs d\IeC {\'e}fauts et bugs. Dans le cadre de ce projet, nous nous int\IeC {\'e}ressons \IeC {\`a} d\IeC {\'e}velopper une application orient\IeC {\'e}e web permettant la gestion de cursus des \IeC {\'e}tudiants LMD en prenant en consid\IeC {\'e}ration les probl\IeC {\`e}mes constat\IeC {\'e}s dans SEES et en la personnalisant selon les besoins de notre facult\IeC {\'e} de sciences exactes de l\IeC {\textquoteright }information de l\IeC {\textquoteright }universit\IeC {\'e} de Mostaganem.}}{3}}
\@writefile{toc}{\contentsline {section}{\numberline {1.1}Objecitf du projet }{3}}
\@writefile{toc}{\contentsline {paragraph}{ \textbf  {\normalfont  Notre objectif principal de ce projet est d\IeC {\textquoteright }informatiser le syst\IeC {\`e}me de gestion du cursus d\IeC {\textquoteright }un \IeC {\'e}tu-diant LMD. En effet, nous voulons concevoir et d\IeC {\'e}velopper une application de gestion des notes des \IeC {\'e}tudiants de la facult\IeC {\'e} des sciences exactes et de l\IeC {\textquoteright }informatique de l\IeC {\textquoteright }universit\IeC {\'e} de Mostaganem. Notre travail consiste \IeC {\`a} informatiser les importantes t\IeC {\^a}ches li\IeC {\'e}es \IeC {\`a} la gestion du cursus d\IeC {\textquoteright }un \IeC {\'e}tudiant LMD telles que : la saisie des notes, la g\IeC {\'e}n\IeC {\'e}ration des relev\IeC {\'e}s de notes, calculs des moyennes, classement des \IeC {\'e}tudiants par ordre, g\IeC {\'e}n\IeC {\'e}ration des proc\IeC {\`e}s verbaux de d\IeC {\'e}lib\IeC {\'e}ration, . . . ). Parmi les avantages souhait\IeC {\'e}s de cette application on peut en citer : \\ }}{3}}
\@writefile{toc}{\contentsline {chapter}{\numberline {2}Gestion de carri\IeC {\`e}re d'\IeC {\'e}tudiant LMD au sein d'une facult\IeC {\'e}}{4}}
\@writefile{lof}{\addvspace {10\p@ }}
\@writefile{lot}{\addvspace {10\p@ }}
\@writefile{toc}{\contentsline {paragraph}{\textbf  {\normalfont  Les membres de l\IeC {\textquoteright }administration ont connu ennorm\IeC {\'e}ment de lacunes quant \IeC {\`a} la gestion de carri\IeC {\`e}re des \IeC {\'e}tudiants. La gestion des notes se faisait dans un premier temps de fa\IeC {\c c}on manuelle ce qui rendait la t\IeC {\^a}che des administeurs extremement difficile. La gestion des archives \IeC {\'e}tait \IeC {\'e}galement complexe \IeC {\`a} cause de l\IeC {\textquoteright }utilisation de documents en format papier. Par la suite, de nouveaux logiciels on \IeC {\'e}t\IeC {\'e} introduit afin d\IeC {\textquoteright }automatiser les traitements. N\IeC {\'e}anmoins, ces logiciels avait des capacit\IeC {\'e}s limit\IeC {\'e}es et comport\IeC {\'e}s de nombreux d\IeC {\'e}fauts architectuels et conceptuels.}}{4}}
\@writefile{toc}{\contentsline {section}{\numberline {2.1}Etablissement universitaire }{4}}
\@writefile{toc}{\contentsline {paragraph}{ \textbf  { {\normalfont  Un \IeC {\'e}tablissement universitaire peut \IeC {\^e}tre une universit\IeC {\'e}, un Centre Universitaire, un institut ou une \IeC {\'e}cole. Une universit\IeC {\'e} est compos\IeC {\'e}e de facult\IeC {\'e}s qui sont compos\IeC {\'e}es \IeC {\`a} leur tour de d\IeC {\'e}parte-ments. Un centre universitaire est compos\IeC {\'e} d\IeC {\textquoteright }instituts qui s\IeC {\textquoteright }articulent autour de d\IeC {\'e}partements. Un institut ou une \IeC {\'e}cole peut \IeC {\^e}tre compos\IeC {\'e}(e) d\IeC {\textquoteright }un ou de plusieurs d\IeC {\'e}partements.} } }{4}}
\@writefile{toc}{\contentsline {section}{\numberline {2.2}D\IeC {\'e}partement }{4}}
\@writefile{toc}{\contentsline {paragraph}{ \textbf  { {\normalfont  Un d\IeC {\'e}partement assure un ou plusieurs cursus de formation (Cycle court (DEUA), cycle long (Ing\IeC {\'e}nieur et Licence), Magist\IeC {\`e}re, Doctorat, Licence LMD, et Master \IeC {\`a} partir de septembre 2007). Cursus : C\IeC {\textquoteright }est un programme universitaire d\IeC {\'e}bouchant sur un dipl\IeC {\^o}me. Il consigne l\IeC {\textquoteright }ensemble des enseignements suivis par un \IeC {\'e}tudiant de sa premi\IeC {\`e}re inscription administrative \IeC {\`a} la d\IeC {\'e}livrance du dipl\IeC {\^o}me. Le cursus dans le cadre du nouveau syst\IeC {\`e}me LMD est organis\IeC {\'e}, pour la licence, autour de mati\IeC {\`e}res (modules) enseign\IeC {\'e}es regroup\IeC {\'e}es en unit\IeC {\'e}s d\IeC {\textquoteright }enseignement sur six semestres (trois ann\IeC {\'e}es).} } }{4}}
\@writefile{toc}{\contentsline {section}{\numberline {2.3}Terminologie LMD }{4}}
\@writefile{toc}{\contentsline {subsection}{\numberline {2.3.1}Domaine}{4}}
\@writefile{toc}{\contentsline {paragraph}{ \textbf  { {\normalfont  C\IeC {\textquoteright }est un axe ou une discipline de formation sup\IeC {\'e}rieure au sens le plus large, \IeC {\`a} ce jour et plus.} }}{4}}
\@writefile{toc}{\contentsline {subsection}{\numberline {2.3.2}Parcours }{5}}
\@writefile{toc}{\contentsline {paragraph}{\textbf  { {\normalfont  Le parcours est un concept du LMD. C\IeC {\textquoteright }est une discipline, une mention ou une sp\IeC {\'e}cialit\IeC {\'e} d\IeC {\textquoteright }un domaine plus vaste. Th\IeC {\'e}oriquement, le parcours est d\IeC {\'e}fini pour un \IeC {\'e}tudiant d\IeC {\`e}s sa premi\IeC {\`e}re ins-cription administrative avec, toutefois, des possibilit\IeC {\'e}s de changement de parcours en cours de route.} } }{5}}
\@writefile{toc}{\contentsline {subsection}{\numberline {2.3.3}Option (Fili\IeC {\`e}re) }{5}}
\@writefile{toc}{\contentsline {paragraph}{\textbf  { {\normalfont  Globalement tout parcours commence par un tronc commun, apr\IeC {\`e}s ce dernier,l\IeC {\textquoteright }\IeC {\'e}tudiant est orient\IeC {\'e} vers une option ou une fili\IeC {\`e}re donn\IeC {\'e}e. Un parcours peut \IeC {\^e}tre confondu avec une option s\IeC {\textquoteright }il n\IeC {\textquoteright }est compos\IeC {\'e} que d\IeC {\textquoteright }une seule option ou fili\IeC {\`e}re.} } }{5}}
\@writefile{toc}{\contentsline {subsection}{\numberline {2.3.4}Unit\IeC {\'e} d\IeC {\textquoteright }enseignement (UE) }{5}}
\@writefile{toc}{\contentsline {paragraph}{\textbf  { {\normalfont  Les unit\IeC {\'e}s d\IeC {\textquoteright }enseignement sont de quatre types : Fondamental,D\IeC {\'e}couverte, Sp\IeC {\'e}cialit\IeC {\'e} ou Trans-versal. Une UE est dot\IeC {\'e}e d\IeC {\textquoteright }un Cr\IeC {\'e}dit (points) port\IeC {\'e} par les \IeC {\'e}l\IeC {\'e}ments p\IeC {\'e}dagogiques, et lui est affect\IeC {\'e} un Coefficient de pond\IeC {\'e}ration par rapport aux autres UE du m\IeC {\^e}me semestre. Un semestre est g\IeC {\'e}n\IeC {\'e}ralement compos\IeC {\'e} de trois \IeC {\`a} quatre UE. La moyenne de l\IeC {\textquoteright }UE est calculable. La moyenne du semestre est calcul\IeC {\'e}e \IeC {\`a} partir des moyennes calcul\IeC {\'e}es des UE pond\IeC {\'e}r\IeC {\'e}es par leurs coefficients. Les UE d\IeC {\textquoteright }un semestre compensent entre-elles. Une UE est g\IeC {\'e}n\IeC {\'e}ralement constitu\IeC {\'e}e d\IeC {\textquoteright }une \IeC {\`a} quatre Mati\IeC {\`e}res (Modules) dispens\IeC {\'e}es par toute forme d\IeC {\textquoteright }enseignement. Les semestres d\IeC {\textquoteright }une m\IeC {\^e}me ann\IeC {\'e}e compens\IeC {\'e}s entre eux par le calcul de la moyenne des notes des unit\IeC {\'e}s d\IeC {\textquoteright }enseignement qui les composent affect\IeC {\'e}es de leurs coefficients respectifs.} } }{5}}
\@writefile{toc}{\contentsline {subsection}{\numberline {2.3.5}Mati\IeC {\`e}res (Modules)}{5}}
\@writefile{toc}{\contentsline {paragraph}{ \textbf  { {\normalfont  Une mati\IeC {\`e}re est dot\IeC {\'e}e d\IeC {\textquoteright }un cr\IeC {\'e}dit mati\IeC {\`e}re et lui est affect\IeC {\'e} un coefficient mati\IeC {\`e}re. A chaque ma-ti\IeC {\`e}re correspond un Examen Final et/ou un Contr\IeC {\^o}le Continu, ce dernier peut \IeC {\^e}tre \IeC {\'e}valu\IeC {\'e} par des notes de TD, TP, Expos\IeC {\'e}, S\IeC {\'e}minaire, Projet, ou toute autre forme arr\IeC {\^e}t\IeC {\'e}e par l\IeC {\textquoteright }\IeC {\'e}quipe p\IeC {\'e}dagogique. L\IeC {\textquoteright }examen final et le contr\IeC {\^o}le continu sont pond\IeC {\'e}r\IeC {\'e}s par des coefficients.} } }{5}}
\@writefile{toc}{\contentsline {section}{\numberline {2.4}Gestion du cursus d'un \IeC {\'e}tudiant LMD }{6}}
\@writefile{toc}{\contentsline {paragraph}{\textbf  {\normalfont  Depuis la premiere inscription de l'\IeC {\'e}tudiant jusqu'\IeC {\`a} sa sortie de la facult\IeC {\'e},il doit suivre un cursus qui permet de faire le suivi de son \IeC {\'e}volution acad\IeC {\'e}mique au sein de la facult\IeC {\'e}.\\ Le parcours des \IeC {\'e}tudiants au niveau de la Facult\IeC {\'e} des Sciences Exactes de l'Informatique est donc un processus qui comprend un ensemble de donn\IeC {\'e}es enregistr\IeC {\'e}es et conserv\IeC {\'e}es par le service charg\IeC {\'e} de cette mati\IeC {\`e}re. Pour r\IeC {\'e}aliser cette tache manuellement , beaucoup de temps va \IeC {\^e}tre perdu en plus du risque de faute de frappe qui peuvent engendrer de gros problemes.\\ Il nous faut donc un systeme rapide et fiable pour diminuer les fautes et les erreurs. \\ La gestion des notes des \IeC {\'e}tudiants par ann\IeC {\'e}e est simple et il y'on a beaucoup d'applications et de systemes qui r\IeC {\'e}alisent ce traitement. De plus, avec l'arriv\IeC {\'e} du syst\IeC {\`e}me LMD qui a compliqu\IeC {\'e} un peu les choses car un \IeC {\'e}tudiant peut passer \IeC {\`a} une ann\IeC {\'e}e sup\IeC {\'e}rieure sans avoir valid\IeC {\'e} une ou plusieurs mati\IeC {\`e}res avec certaines conditions. Il faut alors veiller \IeC {\`a} toujours garder une trace et traiter les anciens r\IeC {\'e}sultats ainsi que les nouveaux, la gestion du cursus d'\IeC {\'e}tudiant devient une tache tr\IeC {\`e}s difficile \IeC {\`a} r\IeC {\'e}aliser mais faisable . \\ Parmis les applications de la gestion de cursus d'\IeC {\'e}tudiant on peut citer: le S.E.E.S qui est valid\IeC {\'e} par le minist\IeC {\`e}re de l\IeC {\textquoteright }enseignement sup\IeC {\'e}rieur et de la recherche scientifique, nous d\IeC {\'e}tailerons le fonctionnement de cette application dans ce qui va suivre.}}{6}}
\@writefile{toc}{\contentsline {section}{\numberline {2.5}Exemple d'application de gestion de notes : S.E.E.S }{6}}
\@writefile{toc}{\contentsline {subsection}{\numberline {2.5.1}Presentation du S.E.E.S (Suivi des Etudiants et des Enseignements Sup\IeC {\'e}rieurs) }{6}}
\@writefile{toc}{\contentsline {paragraph}{ \textbf  { {\normalfont  Le S.E.E.S est un syst\IeC {\`e}me de gestion p\IeC {\'e}dagogique de la scolarit\IeC {\'e} d\IeC {\textquoteright }un \IeC {\'e}tudiant d\IeC {\'e}s sa premi\IeC {\`e}re inscription jusqu\IeC {\textquoteright }\IeC {\`a} sa sortie de l\IeC {\textquoteright }universit\IeC {\'e}, quelque soit le domaine choisi et quelque soit le par-cours retenu. Il d\IeC {\'e}borde par certaines fonctions le cadre strict de la gestion de la scolarit\IeC {\'e} par la gestion des emplois du temps, la gestion des salles, les pr\IeC {\'e}visions budg\IeC {\'e}taires, ...etc. Il fonctionne dans l\IeC {\textquoteright }environnement Windows sous r\IeC {\'e}seau.} } }{6}}
\@writefile{toc}{\contentsline {subsection}{\numberline {2.5.2}Limitations / inconv\IeC {\'e}nients du S.E.E.S }{6}}
\@writefile{toc}{\contentsline {paragraph}{\textbf  {\normalfont  Le syst\IeC {\`e}me de gestion de notes actuellement d\IeC {\'e}ploy\IeC {\'e} au sein de la fsei pr\IeC {\'e}sente de nombreux d\IeC {\'e}fauts de conception qui rendent son utilisation complexe et peu pratique,parmi les d\IeC {\'e}fauts que nous avons relev\IeC {\'e}s lors de notre stage on peut citer :\\ }}{6}}
\@writefile{toc}{\contentsline {chapter}{\numberline {3}Mod\IeC {\'e}lisation et conception }{8}}
\@writefile{lof}{\addvspace {10\p@ }}
\@writefile{lot}{\addvspace {10\p@ }}
\@writefile{toc}{\contentsline {section}{\numberline {3.1}Probl\IeC {\'e}matique : Besoins et d\IeC {\'e}fis }{8}}
\@writefile{toc}{\contentsline {paragraph}{\textbf  {\normalfont  Lors de notre stage nous avons constat\IeC {\'e} de nombreux d\IeC {\'e}fauts de conception. Notre travail a consist\IeC {\'e} \IeC {\`a} trouver des solutions ad\IeC {\'e}quates \IeC {\`a} ces probl\IeC {\'e}mes afin d\IeC {\textquoteright } aboutir \IeC {\`a} un syst\IeC {\`e}me \IeC {\`a} la fois performant , flexible , robuste et qui se rapproche au plus \IeC {\`a} nos besoins : \\ }}{8}}
\@writefile{toc}{\contentsline {paragraph}{\textbf  {\normalfont  * Notons que les different tache cit\IeC {\'e} ci dessus ne sont pas propos\IeC {\'e} par application S.E.E.S.}}{8}}
\@writefile{toc}{\contentsline {paragraph}{\textbf  {\normalfont  Apr\IeC {\`e}s l\IeC {\textquoteright }analyse du syst\IeC {\`e}me ,on a identifi\IeC {\'e} nos besoins et maintenant on passe au chapitre suivant l\IeC {\`a} o\IeC {\`u} on a trait\IeC {\'e} la conception de la solution et les diagrammes. }}{9}}
\@writefile{toc}{\contentsline {section}{\numberline {3.2}Conception de la solution / Mod\IeC {\`e}le}{9}}
\@writefile{toc}{\contentsline {paragraph}{\textbf  {\normalfont  Nous allons pr\IeC {\'e}senter dans ce chapitre la partie conception du projet , nous avons construit une vue compl\IeC {\`e}te sous forme de diagrammes de cas d\IeC {\textquoteright }utilisation et de diagrammes d\IeC {\textquoteright }activit\IeC {\'e} en utilisant UML comme m\IeC {\'e}thode de conception et draw.io comme logiciel de conception.}}{9}}
\@writefile{toc}{\contentsline {subsection}{\numberline {3.2.1}M\IeC {\'e}thode et outil de conception }{9}}
\@writefile{toc}{\contentsline {paragraph}{\textbf  {\normalfont  Nous avons utilis\IeC {\'e} UML comme langage de mod\IeC {\'e}lisation parce qu\IeC {\textquoteright } il exprime mieux les interactions entre les acteurs et les syst\IeC {\`e}mes. }}{9}}
\@writefile{toc}{\contentsline {subsubsection}{\textbf  {\normalfont  {UML (en anglais Unified Modeling Language, \IeC {\guillemotleft } langage de mod\IeC {\'e}lisation unifi\IeC {\'e} \IeC {\guillemotright }),il se d\IeC {\'e}finit comme un langage de mod\IeC {\'e}lisation graphique et textuel. Il est destin\IeC {\'e} \IeC {\`a} comprendre et d\IeC {\'e}crire des besoins, sp\IeC {\'e}cifier et documenter les syst\IeC {\`e}mes, et sert aussi \IeC {\`a} esquisser des architectures logicielles, concevoir des solutions et communiquer des points de vue. }}}{9}}
\@writefile{toc}{\contentsline {paragraph}{\textbf  {\normalfont  On a utilis\IeC {\'e} draw.io comme outil de cr\IeC {\'e}ation des diagrammes qui nous a beaucoup aid\IeC {\'e}s.}}{9}}
\@writefile{toc}{\contentsline {paragraph}{\textbf  {\normalfont  Draw.io est une application cr\IeC {\'e}ation de diagrammes compatible avec Google Drive(TM) et enti\IeC {\`e}rement gratuite vous permettant de dessiner les diagrammes les organigrammes etc... }}{9}}
\@writefile{toc}{\contentsline {subsection}{\numberline {3.2.2}Identification des acteurs }{9}}
\@writefile{toc}{\contentsline {paragraph}{\textbf  {\normalfont  Un acteur est une entit\IeC {\'e} ext\IeC {\'e}rieure ou int\IeC {\'e}rieure au syst\IeC {\`e}me mod\IeC {\'e}lis\IeC {\'e}, et qui interagit directement avec lui, elle est peut-\IeC {\^e}tre un utilisateur humain ou un autre syst\IeC {\`e}me. }}{9}}
\@writefile{toc}{\contentsline {paragraph}{ Les acteurs dans notre application sont : }{9}}
\@writefile{toc}{\contentsline {subsection}{\numberline {3.2.3}Diagramme de cas d\IeC {\textquoteright }utilisation }{10}}
\@writefile{lof}{\contentsline {figure}{\numberline {3.1}{\ignorespaces Diagramme de cas d'utilisation du syst\IeC {\`e}me\relax }}{10}}
\providecommand*\caption@xref[2]{\@setref\relax\@undefined{#1}}
\newlabel{Diagramme de cas d'utilisation du syst\IeC {\`e}me}{{3.1}{10}}
\@writefile{toc}{\contentsline {subsection}{\numberline {3.2.4}Diagramme de sequence}{11}}
\newlabel{Diagramme de s\IeC {\'e}quence}{{3.2.4}{11}}
\@writefile{lof}{\contentsline {figure}{\numberline {3.2}{\ignorespaces Diagramme de s\IeC {\'e}quence\relax }}{11}}
\@writefile{toc}{\contentsline {subsection}{\numberline {3.2.5}Diagramme d\IeC {\textquoteright }activit\IeC {\'e} }{12}}
\newlabel{Diagramme de activit\IeC {\'e} }{{3.2.5}{12}}
\@writefile{lof}{\contentsline {figure}{\numberline {3.3}{\ignorespaces Diagramme de activit\IeC {\'e}\relax }}{12}}
\@writefile{toc}{\contentsline {section}{\numberline {3.3}Conclusion}{12}}
\@writefile{toc}{\contentsline {chapter}{\numberline {4}R\IeC {\'e}alisation de l'application }{13}}
\@writefile{lof}{\addvspace {10\p@ }}
\@writefile{lot}{\addvspace {10\p@ }}
\@writefile{toc}{\contentsline {section}{\numberline {4.1}Introduction}{13}}
\@writefile{toc}{\contentsline {paragraph}{\textbf  {\normalfont  Dans les chapitres pr\IeC {\'e}c\IeC {\'e}dentes, nous avons bien d\IeC {\'e}termin\IeC {\'e} les perspectives du syst\IeC {\`e}me en tra\IeC {\c c}ant un cahier de charge d\IeC {\'e}taill\IeC {\'e} qui nous a permis d'avoir un objectif bien concret. Puis ue fois arriv\IeC {\'e} \IeC {\`a} l'analyse, nous avons pu avoir une id\IeC {\'e}e bien claire sur le d\IeC {\'e}roulement de notre projet, et c'est ce qui nous a men\IeC {\'e} a mieux comprendre ses fonctionnalit\IeC {\'e}s \\Nous citons dans ce dernier chapitre l\IeC {\textquoteright }environnement de d\IeC {\'e}veloppement mis en place ensuite nous donnons un aper\IeC {\c c}u des outils utilis\IeC {\'e}s.\\ \\ Nous arrivons maintenant a la derni\IeC {\'e}re phase qui est l'impl\IeC {\'e}mentation.}}{13}}
\@writefile{toc}{\contentsline {section}{\numberline {4.2}Outils utilis\IeC {\'e}s}{13}}
\@writefile{toc}{\contentsline {paragraph}{\textbf  {\normalfont  Pour r\IeC {\'e}aliser notre application nous avons choisi d'utiliser les outils suivants : \\} }{13}}
\@writefile{toc}{\contentsline {paragraph}{\textbf  {\normalfont  Les outils que nous avons pr\IeC {\'e}alablement cit\IeC {\'e}s sont a la fois performantes et robustes , voici leurs principales fonctionalit\IeC {\'e} : }}{14}}
\@writefile{toc}{\contentsline {subsection}{\numberline {4.2.1}Qu'est-ce que Odoo / OpenERP ? }{14}}
\newlabel{OpenERP : odoo}{{\caption@xref {OpenERP : odoo}{ on input line 409}}{14}}
\@writefile{lof}{\contentsline {figure}{\numberline {4.1}{\ignorespaces OpenERP : odoo\relax }}{14}}
\@writefile{toc}{\contentsline {subsection}{\numberline {4.2.2}PostgreSQL }{14}}
\@writefile{toc}{\contentsline {paragraph}{\textbf  { {\normalfont  PostgreSQL est un syst\IeC {\`e}me de gestion de base de donn\IeC {\'e}es relationnelle et objet (SGBDRO). C'est un outil libre, ce syst\IeC {\`e}me est concurrent d'autres syst\IeC {\`e}mes de gestion de base de donn\IeC {\'e}es, qu'ils soient libres ou propri\IeC {\'e}taires.\\ Le point fort de PostgreSQL est qu'il n'est pas contr\IeC {\^o}l\IeC {\'e} par une seule entreprise, mais est fond\IeC {\'e} sur une communaut\IeC {\'e} mondiale de d\IeC {\'e}veloppeurs et d'entreprises. } } }{14}}
\@writefile{toc}{\contentsline {subsection}{\numberline {4.2.3}Docker }{15}}
\newlabel{Machine virtuelle vs Docker}{{\caption@xref {Machine virtuelle vs Docker}{ on input line 443}}{15}}
\@writefile{lof}{\contentsline {figure}{\numberline {4.2}{\ignorespaces Machine virtuelle vs Docker\relax }}{15}}
\@writefile{toc}{\contentsline {paragraph}{\textbf  {\normalfont  }}{15}}
\@writefile{toc}{\contentsline {section}{\numberline {4.3}Application d\IeC {\'e}velopp\IeC {\'e}e}{16}}
\newlabel{Formulaire de cr\IeC {\'e}ation d'une base de donn\IeC {\'e}e}{{4.3}{16}}
\@writefile{lof}{\contentsline {figure}{\numberline {4.3}{\ignorespaces Formulaire de cr\IeC {\'e}ation d'une base de donn\IeC {\'e}e\relax }}{16}}
\@writefile{lof}{\contentsline {figure}{\numberline {4.4}{\ignorespaces La page index de la plateforme \relax }}{16}}
\newlabel{La page index de la plateforme}{{4.4}{16}}
\@writefile{lof}{\contentsline {figure}{\numberline {4.5}{\ignorespaces La deuxiemme page d'index\relax }}{17}}
\newlabel{La deuxieme page d'index}{{4.5}{17}}
\@writefile{lof}{\contentsline {figure}{\numberline {4.6}{\ignorespaces La page principale de la plateforme\relax }}{17}}
\newlabel{La page principale de la plateforme}{{4.6}{17}}
\@writefile{lof}{\contentsline {figure}{\numberline {4.7}{\ignorespaces Le formulaire d'inscription d'\IeC {\'e}tudiant\relax }}{18}}
\newlabel{La page principale d'inscription d'\IeC {\'e}tudiant}{{4.7}{18}}
\@writefile{toc}{\contentsline {section}{\numberline {4.4}Conclusion}{18}}
\@writefile{toc}{\contentsline {chapter}{\numberline {5}Conclusion G\IeC {\`e}nerale}{19}}
\@writefile{lof}{\addvspace {10\p@ }}
\@writefile{lot}{\addvspace {10\p@ }}
\@writefile{toc}{\contentsline {paragraph}{\textbf  {\normalfont  Le pr\IeC {\'e}sent projet de fin d'\IeC {\'e}tudes a pour but la mise en place d'un systeme de gestion des cursus d'\IeC {\'e}tudiants. Ce projet nous a aid\IeC {\'e}s \IeC {\`a} am\IeC {\'e}liorer nos connaissancesen informatique.\\ Notre m\IeC {\'e}moire est compos\IeC {\'e} de deux phases : une phase th\IeC {\'e}orique qui a englob\IeC {\'e} trois chapitres et une phase pratique incluse dans le dernier chapitre. \\ \\ Dans le premier chapitre nous avons soulign\IeC {\'e} les objectifs de notre projet, Apr\IeC {\'e}s dans le deuxieme chapitre nous avons donn\IeC {\'e} une description d\IeC {\'e}taill\IeC {\'e}e de l'\IeC {\'e}tablissement universitaire ainsi que l'application SEES, ensuite dans le troisi\IeC {\`e}me chapitre, nous avons pu \IeC {\'e}tudier l\IeC {\textquoteright }approche orient\IeC {\'e}e objet pr\IeC {\'e}sent\IeC {\'e}e par le langage de mod\IeC {\'e}lisation UML pour analyser et sp\IeC {\'e}cifier les besoins dans un premier temps et pour concevoir notre application dans un deuxi\IeC {\`e}me temps. }}{19}}
\@writefile{toc}{\contentsline {paragraph}{\textbf  {\normalfont  Quant \IeC {\`a} la r\IeC {\'e}alisation pratique d\IeC {\'e}velopp\IeC {\'e}e au dernier chapitre,nous avons r\IeC {\'e}ussi a r\IeC {\'e}aliser ce systeme de gestion de cursus d'\IeC {\'e}tudiant qui facilite tous les taches par exemple : Un enseignant pourrait acc\IeC {\'e}der \IeC {\`a} ses propres t\IeC {\^a}ches p\IeC {\'e}dagogiques comme la consultation des modules qu\IeC {\textquoteright }il doit enseigner, il peut aussi saisir les notes des \IeC {\'e}tudiants dans la base de donn\IeC {\'e}es ..etc,et ce qui Concerne l\IeC {\textquoteright }\IeC {\'e}tudiant, notre syst\IeC {\`e}me lui offre la possibilit\IeC {\'e} de voir ses notes.\\ \\ Cette application a permis en premier lieu de r\IeC {\'e}pondre aux besoins des utilisateurs par la r\IeC {\'e}solution des probl\IeC {\`e}mes tel que la gestion des notes, qui est l'\IeC {\'e}tape la plus importante dans ce travail. En deuxi\IeC {\`e}me lieu, elle a permis d'orienter le personnel vers une application fiable et unique.\\ \\ En ce qui nous concerne, ce travail a \IeC {\'e}t\IeC {\'e} pour nous \IeC {\`a} la fois, un sujet de recherche dans le domaine universitaire, et d'affirmation dans le monde professionnel.\\ Pour conclure, au cours de notre projet, nous avons entam\IeC {\'e} une d\IeC {\'e}marche \IeC {\`a} mi-chemin entre la gestion du projet et l\IeC {\textquoteright }auto-formation, qui a permis de mettre la main sur de nombreuses ressources et composants. \\ \\ Ceci nous a permis de passer toutes les \IeC {\'e}tapes de d\IeC {\'e}veloppement (gestion de projet, analyse, conception,r\IeC {\'e}alisation, tests) avec succ\IeC {\`e}s.}}{19}}
\bibcite{cle}{1}
\bibcite{cle}{2}
